\relax 
\providecommand\hyper@newdestlabel[2]{}
\providecommand\HyperFirstAtBeginDocument{\AtBeginDocument}
\HyperFirstAtBeginDocument{\ifx\hyper@anchor\@undefined
\global\let\oldcontentsline\contentsline
\gdef\contentsline#1#2#3#4{\oldcontentsline{#1}{#2}{#3}}
\global\let\oldnewlabel\newlabel
\gdef\newlabel#1#2{\newlabelxx{#1}#2}
\gdef\newlabelxx#1#2#3#4#5#6{\oldnewlabel{#1}{{#2}{#3}}}
\AtEndDocument{\ifx\hyper@anchor\@undefined
\let\contentsline\oldcontentsline
\let\newlabel\oldnewlabel
\fi}
\fi}
\global\let\hyper@last\relax 
\gdef\HyperFirstAtBeginDocument#1{#1}
\providecommand\HyField@AuxAddToFields[1]{}
\providecommand\HyField@AuxAddToCoFields[2]{}
\@writefile{toc}{\contentsline {section}{\numberline {1}Introduction}{2}{section.1}}
\newlabel{sec:related-work}{{1}{2}{Introduction}{section.1}{}}
\@writefile{tdo}{\contentsline {todo}{clean up and add related work}{2}{section*.3}}
\pgfsyspdfmark {pgfid1}{8799518}{34075898}
\pgfsyspdfmark {pgfid4}{34243870}{34088186}
\pgfsyspdfmark {pgfid5}{36357406}{33864272}
\@writefile{toc}{\contentsline {paragraph}{Assumption 1:}{2}{section*.4}}
\@writefile{toc}{\contentsline {paragraph}{Assumption 2:}{2}{section*.5}}
\@writefile{toc}{\contentsline {section}{\numberline {2}Aggregation}{3}{section.2}}
\newlabel{sec:method}{{2}{3}{Aggregation}{section.2}{}}
\@writefile{tdo}{\contentsline {todo}{check notation and align with rest}{3}{section*.6}}
\pgfsyspdfmark {pgfid6}{8799518}{42010306}
\pgfsyspdfmark {pgfid9}{34243870}{42022594}
\pgfsyspdfmark {pgfid10}{36357406}{41798680}
\@writefile{toc}{\contentsline {subsection}{\numberline {2.1}Selecting Context Transactions}{3}{subsection.2.1}}
\@writefile{toc}{\contentsline {paragraph}{Constraint Types}{4}{section*.7}}
\newlabel{eq:negconstraint}{{10}{5}{Constraint Types}{equation.2.10}{}}
\newlabel{eq:matchRaw}{{11}{5}{Constraint Types}{equation.2.11}{}}
\@writefile{toc}{\contentsline {subsection}{\numberline {2.2}Aggregation}{5}{subsection.2.2}}
\@writefile{toc}{\contentsline {subsection}{\numberline {2.3}Illustration}{6}{subsection.2.3}}
\@writefile{lot}{\contentsline {table}{\numberline {1}{\ignorespaces Example dataset consisting of ordered transactions from a single user. Column \texttt  {ID} is not part of the dataset but was added to ease the lookup. An encoding of categorical variables is given to the right of each categorical value.}}{7}{table.1}}
\newlabel{tab:dataset}{{1}{7}{Example dataset consisting of ordered transactions from a single user. Column \texttt {ID} is not part of the dataset but was added to ease the lookup. An encoding of categorical variables is given to the right of each categorical value}{table.1}{}}
\@writefile{toc}{\contentsline {section}{\numberline {3}Implementation}{7}{section.3}}
\newlabel{sec:implementation}{{3}{7}{Implementation}{section.3}{}}
\@writefile{lot}{\contentsline {table}{\numberline {2}{\ignorespaces Example aggregations for data in table\nobreakspace  {}\ref  {tab:dataset}.}}{8}{table.2}}
\newlabel{tab:exaggs}{{2}{8}{Example aggregations for data in table~\ref {tab:dataset}}{table.2}{}}
\@writefile{lof}{\contentsline {figure}{\numberline {1}{\ignorespaces Example aggregation expressed in micro query language: "Number of transactions issued within the last 24 hours (5) with an amount (6) larger than 1.0. Only the previous 100 transactions are considered for aggregation."}}{9}{figure.1}}
\newlabel{lst:exquery}{{1}{9}{Example aggregation expressed in micro query language: "Number of transactions issued within the last 24 hours (5) with an amount (6) larger than 1.0. Only the previous 100 transactions are considered for aggregation."}{figure.1}{}}
\@writefile{toc}{\contentsline {section}{\numberline {4}Evaluation}{9}{section.4}}
\citation{einstein}
\bibstyle{unsrt}
\bibdata{literature}
\@writefile{tdo}{\contentsline {todo}{dataset generator, aggregation sampler, report timings as k->inf and a->inf}{10}{section*.8}}
\pgfsyspdfmark {pgfid11}{9782558}{40299997}
\pgfsyspdfmark {pgfid14}{34243870}{40312285}
\pgfsyspdfmark {pgfid15}{36357406}{40088371}
\@writefile{toc}{\contentsline {section}{\numberline {5}Conclusion}{10}{section.5}}
\newlabel{conclusion}{{5}{10}{Conclusion}{section.5}{}}
\@writefile{tdo}{\contentsline {todo}{add conclusion}{10}{section*.9}}
\pgfsyspdfmark {pgfid16}{9782558}{31978750}
\pgfsyspdfmark {pgfid19}{34243870}{31991038}
\pgfsyspdfmark {pgfid20}{36357406}{31767124}
\@writefile{toc}{\contentsline {paragraph}{Acknowledgement}{10}{section*.10}}
\@writefile{toc}{\contentsline {section}{\numberline {6}Appendix}{10}{section.6}}
\newlabel{sec:appendix}{{6}{10}{Appendix}{section.6}{}}
\@writefile{toc}{\contentsline {section}{References}{10}{figure.2}}
\@writefile{lot}{\contentsline {table}{\numberline {3}{\ignorespaces Equivalent queries for aggregations from table\nobreakspace  {}\ref  {tab:exaggs}.}}{11}{table.3}}
\newlabel{tab:exqueries}{{3}{11}{Equivalent queries for aggregations from table~\ref {tab:exaggs}}{table.3}{}}
\@writefile{lof}{\contentsline {figure}{\numberline {2}{\ignorespaces BNF-grammar of the micro query language in {\texttt  {caggy}\ }.}}{12}{figure.2}}
\newlabel{lst:querylang-bnf}{{2}{12}{BNF-grammar of the micro query language in \libname }{figure.2}{}}
